{ "protocol": "Pt24m4xiPbLDhVgVfABUjirbmda3yohdN82Sp9FeuAXJ4eV9otd",
  "chain_id": "NetXgtSLGNJvNye",
  "hash": "BLpSg6w9hrm3bmx7yrnNDT2fgfvtBAfxvrHZbPdRhoo9n11v16B",
  "header":
    { "level": 681656, "proto": 2,
      "predecessor": "BLfMs3wwL7rAZN1v4YsX35F4wfzz3shYbjp3hWrP3fRkiPwBTnG",
      "timestamp": "2019-09-24T03:45:36Z", "validation_pass": 4,
      "operations_hash":
        "LLoZNzRWtTVkzNMSe9YsUUNpqZi4T2KNcQk9Ahn47Jsra1yJpjQSZ",
      "fitness": [ "00", "00000000013aa275" ],
      "context": "CoV3cidqukDYmpPDyGQEM9XhBq82gj14amZX3zbkzs76v8zgQQFN",
      "priority": 0, "proof_of_work_nonce": "000000036d00b628",
      "signature":
        "siga6MwX3zFJ2ig4e726WWEDmiyQTwgkQSZnbndX7AzJQWnRXjWKEzrcF44r6GsnUwWe5sP36AV8sv4VsbqbziG41g2jcsbW" },
  "metadata":
    { "protocol": "Pt24m4xiPbLDhVgVfABUjirbmda3yohdN82Sp9FeuAXJ4eV9otd",
      "next_protocol": "Pt24m4xiPbLDhVgVfABUjirbmda3yohdN82Sp9FeuAXJ4eV9otd",
      "test_chain_status": { "status": "not_running" },
      "max_operations_ttl": 60, "max_operation_data_length": 16384,
      "max_block_header_length": 238,
      "max_operation_list_length":
        [ { "max_size": 32768, "max_op": 32 }, { "max_size": 32768 },
          { "max_size": 135168, "max_op": 132 }, { "max_size": 524288 } ],
      "baker": "tz3gN8NTLNLJg5KRsUU47NHNVHbdhcFXjjaB",
      "level":
        { "level": 681656, "level_position": 681655, "cycle": 332,
          "cycle_position": 1719, "voting_period": 83,
          "voting_period_position": 1719, "expected_commitment": false },
      "voting_period_kind": "proposal", "nonce_hash": null,
      "consumed_gas": "0", "deactivated": [],
      "balance_updates":
        [ { "kind": "contract",
            "contract": "tz3gN8NTLNLJg5KRsUU47NHNVHbdhcFXjjaB",
            "change": "-512000000" },
          { "kind": "freezer", "category": "deposits",
            "delegate": "tz3gN8NTLNLJg5KRsUU47NHNVHbdhcFXjjaB", "cycle": 332,
            "change": "512000000" },
          { "kind": "freezer", "category": "rewards",
            "delegate": "tz3gN8NTLNLJg5KRsUU47NHNVHbdhcFXjjaB", "cycle": 332,
            "change": "16000000" } ] },
  "operations":
    [ [ { "protocol": "Pt24m4xiPbLDhVgVfABUjirbmda3yohdN82Sp9FeuAXJ4eV9otd",
          "chain_id": "NetXgtSLGNJvNye",
          "hash": "oodBLVMMphPw266cpSeUR48X25sp3wFzXKrXPa4VRQCBMMEKSRx",
          "branch": "BLfMs3wwL7rAZN1v4YsX35F4wfzz3shYbjp3hWrP3fRkiPwBTnG",
          "contents":
            [ { "kind": "endorsement", "level": 681655,
                "metadata":
                  { "balance_updates":
                      [ { "kind": "contract",
                          "contract": "tz3gN8NTLNLJg5KRsUU47NHNVHbdhcFXjjaB",
                          "change": "-768000000" },
                        { "kind": "freezer", "category": "deposits",
                          "delegate": "tz3gN8NTLNLJg5KRsUU47NHNVHbdhcFXjjaB",
                          "cycle": 332, "change": "768000000" },
                        { "kind": "freezer", "category": "rewards",
                          "delegate": "tz3gN8NTLNLJg5KRsUU47NHNVHbdhcFXjjaB",
                          "cycle": 332, "change": "4800000" } ],
                    "delegate": "tz3gN8NTLNLJg5KRsUU47NHNVHbdhcFXjjaB",
                    "slots": [ 29, 26, 25, 24, 17, 15, 11, 8, 6, 3, 2, 1 ] } } ],
          "signature":
            "sigN1o64SRJ145uwkQgtFe5z2jDYE92ksEnVjdujuHooCMBBRUveNavjs2DMyFNYsMAEsfrrjLw3fQe63KyXDpEb2ugAWfAT" } ],
      [], [], [] ] }

